{
  "key": "performance-refapp-key",
  "dependencies": {},
  "name": "Performance Refapp",
  "description": "A connect app for timing API functions",
  "vendor": {
    "name": "Atlassian",
    "url": "http://www.atlassian.com"
  },
  "baseUrl": "https://acjsrefapp.atl-paas.net",
  "authentication": {
    "type": "none"
  },
  "enableLicensing": false,
  "scopes": [
    "read",
    "write"
  ],
  "modules": {
    "generalPages": [
      {
        "key": "acjs-refapp-general-page",
        "url": "/?data-options=host-product-name:Jira;sizeToParent:true/#/app/perf-app-home/",
        "name": {
          "value": "ACJS Performance Refapp"
        },
        "icon": {
          "width": 80,
          "height": 80,
          "url": "/ACJS.png"
        }
      }
    ],
    "webPanels": [
      {
        "key": "acjs-refapp-view-issue-right-context",
        "url": "/?data-options=host-product-name:Jira;sizeToParent:true/#/app/perf-app-home/",
        "location": "atl.jira.view.issue.right.context",
        "name": {
          "value": "ACJS Refapp - Right Context Panel"
        },
        "weight": 80
      }
    ],
    "dialogs": [
      {
        "key": "perf-dialog",
        "url": "/?soloPage=perf-dialog&data-options=foo:bar/#/app/perf-app-dialog/",
        "options": {
          "size": "medium",
          "header": {
            "value": "Basic Dialog"
          }
        }
      },
      {
        "key": "perf-dialog-cacheable",
        "url": "/?soloPage=perf-dialog-cacheable&data-options=foo:bar/#/app/perf-app-dialog/",
        "options": {
          "size": "medium",
          "header": {
            "value": "Cacheable Dialog"
          }
        },
        "cacheable": true
      }
    ]
  }
}